simulation/qsim/test.msim.vcd
$comment
	File created using the following command:
		vcd file test.msim.vcd -direction
$end
$date
	Sat May 11 10:44:06 2024
$end
$version
	ModelSim Version 10.1d
$end
$timescale
	1ps
$end
$scope module test_vlg_vec_tst $end
$var reg 1 ! EN $end
$var reg 1 " clk $end
$var reg 1 # reset $end
$var wire 1 $ decodeout0 [6] $end
$var wire 1 % decodeout0 [5] $end
$var wire 1 & decodeout0 [4] $end
$var wire 1 ' decodeout0 [3] $end
$var wire 1 ( decodeout0 [2] $end
$var wire 1 ) decodeout0 [1] $end
$var wire 1 * decodeout0 [0] $end
$var wire 1 + decodeout1 [6] $end
$var wire 1 , decodeout1 [5] $end
$var wire 1 - decodeout1 [4] $end
$var wire 1 . decodeout1 [3] $end
$var wire 1 / decodeout1 [2] $end
$var wire 1 0 decodeout1 [1] $end
$var wire 1 1 decodeout1 [0] $end
$var wire 1 2 decodeout2 [6] $end
$var wire 1 3 decodeout2 [5] $end
$var wire 1 4 decodeout2 [4] $end
$var wire 1 5 decodeout2 [3] $end
$var wire 1 6 decodeout2 [2] $end
$var wire 1 7 decodeout2 [1] $end
$var wire 1 8 decodeout2 [0] $end
$var wire 1 9 decodeout3 [6] $end
$var wire 1 : decodeout3 [5] $end
$var wire 1 ; decodeout3 [4] $end
$var wire 1 < decodeout3 [3] $end
$var wire 1 = decodeout3 [2] $end
$var wire 1 > decodeout3 [1] $end
$var wire 1 ? decodeout3 [0] $end
$var wire 1 @ decodeout4 [6] $end
$var wire 1 A decodeout4 [5] $end
$var wire 1 B decodeout4 [4] $end
$var wire 1 C decodeout4 [3] $end
$var wire 1 D decodeout4 [2] $end
$var wire 1 E decodeout4 [1] $end
$var wire 1 F decodeout4 [0] $end
$var wire 1 G decodeout5 [6] $end
$var wire 1 H decodeout5 [5] $end
$var wire 1 I decodeout5 [4] $end
$var wire 1 J decodeout5 [3] $end
$var wire 1 K decodeout5 [2] $end
$var wire 1 L decodeout5 [1] $end
$var wire 1 M decodeout5 [0] $end
$var wire 1 N sampler $end
$scope module i1 $end
$var wire 1 O gnd $end
$var wire 1 P vcc $end
$var wire 1 Q unknown $end
$var tri1 1 R devclrn $end
$var tri1 1 S devpor $end
$var tri1 1 T devoe $end
$var wire 1 U decodeout0[0]~output_o $end
$var wire 1 V decodeout0[1]~output_o $end
$var wire 1 W decodeout0[2]~output_o $end
$var wire 1 X decodeout0[3]~output_o $end
$var wire 1 Y decodeout0[4]~output_o $end
$var wire 1 Z decodeout0[5]~output_o $end
$var wire 1 [ decodeout0[6]~output_o $end
$var wire 1 \ decodeout1[0]~output_o $end
$var wire 1 ] decodeout1[1]~output_o $end
$var wire 1 ^ decodeout1[2]~output_o $end
$var wire 1 _ decodeout1[3]~output_o $end
$var wire 1 ` decodeout1[4]~output_o $end
$var wire 1 a decodeout1[5]~output_o $end
$var wire 1 b decodeout1[6]~output_o $end
$var wire 1 c decodeout2[0]~output_o $end
$var wire 1 d decodeout2[1]~output_o $end
$var wire 1 e decodeout2[2]~output_o $end
$var wire 1 f decodeout2[3]~output_o $end
$var wire 1 g decodeout2[4]~output_o $end
$var wire 1 h decodeout2[5]~output_o $end
$var wire 1 i decodeout2[6]~output_o $end
$var wire 1 j decodeout3[0]~output_o $end
$var wire 1 k decodeout3[1]~output_o $end
$var wire 1 l decodeout3[2]~output_o $end
$var wire 1 m decodeout3[3]~output_o $end
$var wire 1 n decodeout3[4]~output_o $end
$var wire 1 o decodeout3[5]~output_o $end
$var wire 1 p decodeout3[6]~output_o $end
$var wire 1 q decodeout4[0]~output_o $end
$var wire 1 r decodeout4[1]~output_o $end
$var wire 1 s decodeout4[2]~output_o $end
$var wire 1 t decodeout4[3]~output_o $end
$var wire 1 u decodeout4[4]~output_o $end
$var wire 1 v decodeout4[5]~output_o $end
$var wire 1 w decodeout4[6]~output_o $end
$var wire 1 x decodeout5[0]~output_o $end
$var wire 1 y decodeout5[1]~output_o $end
$var wire 1 z decodeout5[2]~output_o $end
$var wire 1 { decodeout5[3]~output_o $end
$var wire 1 | decodeout5[4]~output_o $end
$var wire 1 } decodeout5[5]~output_o $end
$var wire 1 ~ decodeout5[6]~output_o $end
$var wire 1 !! clk~input_o $end
$var wire 1 "! a|a|Add0~5_sumout $end
$var wire 1 #! reset~input_o $end
$var wire 1 $! a|a|Add0~2 $end
$var wire 1 %! a|a|Add0~29_sumout $end
$var wire 1 &! a|a|Add0~30 $end
$var wire 1 '! a|a|Add0~25_sumout $end
$var wire 1 (! a|a|Add0~26 $end
$var wire 1 )! a|a|Add0~21_sumout $end
$var wire 1 *! a|a|Add0~22 $end
$var wire 1 +! a|a|Add0~17_sumout $end
$var wire 1 ,! a|a|Add0~18 $end
$var wire 1 -! a|a|Add0~97_sumout $end
$var wire 1 .! a|a|Add0~98 $end
$var wire 1 /! a|a|Add0~13_sumout $end
$var wire 1 0! a|a|Add0~14 $end
$var wire 1 1! a|a|Add0~101_sumout $end
$var wire 1 2! a|a|Add0~102 $end
$var wire 1 3! a|a|Add0~33_sumout $end
$var wire 1 4! a|a|Add0~34 $end
$var wire 1 5! a|a|Add0~37_sumout $end
$var wire 1 6! a|a|Add0~38 $end
$var wire 1 7! a|a|Add0~41_sumout $end
$var wire 1 8! a|a|Add0~42 $end
$var wire 1 9! a|a|Add0~45_sumout $end
$var wire 1 :! a|a|Add0~46 $end
$var wire 1 ;! a|a|Add0~49_sumout $end
$var wire 1 <! a|a|Add0~50 $end
$var wire 1 =! a|a|Add0~53_sumout $end
$var wire 1 >! a|a|Add0~54 $end
$var wire 1 ?! a|a|Add0~9_sumout $end
$var wire 1 @! a|a|Equal0~1_combout $end
$var wire 1 A! a|a|Equal0~2_combout $end
$var wire 1 B! a|a|Add0~10 $end
$var wire 1 C! a|a|Add0~57_sumout $end
$var wire 1 D! a|a|Add0~58 $end
$var wire 1 E! a|a|Add0~61_sumout $end
$var wire 1 F! a|a|Add0~62 $end
$var wire 1 G! a|a|Add0~65_sumout $end
$var wire 1 H! a|a|Add0~66 $end
$var wire 1 I! a|a|Add0~69_sumout $end
$var wire 1 J! a|a|Add0~70 $end
$var wire 1 K! a|a|Add0~73_sumout $end
$var wire 1 L! a|a|Add0~74 $end
$var wire 1 M! a|a|Add0~77_sumout $end
$var wire 1 N! a|a|Equal0~3_combout $end
$var wire 1 O! a|a|Add0~78 $end
$var wire 1 P! a|a|Add0~81_sumout $end
$var wire 1 Q! a|a|Add0~82 $end
$var wire 1 R! a|a|Add0~85_sumout $end
$var wire 1 S! a|a|Add0~86 $end
$var wire 1 T! a|a|Add0~89_sumout $end
$var wire 1 U! a|a|Add0~90 $end
$var wire 1 V! a|a|Add0~93_sumout $end
$var wire 1 W! a|a|Equal0~4_combout $end
$var wire 1 X! a|a|Equal0~5_combout $end
$var wire 1 Y! a|a|Add0~6 $end
$var wire 1 Z! a|a|Add0~1_sumout $end
$var wire 1 [! a|a|Equal0~0_combout $end
$var wire 1 \! a|a|clk_1s~0_combout $end
$var wire 1 ]! a|a|clk_1s~q $end
$var wire 1 ^! a|b|qout[4]~7_combout $end
$var wire 1 _! a|b|qout[0]~8_combout $end
$var wire 1 `! EN~input_o $end
$var wire 1 a! a|b|qout[2]~5_combout $end
$var wire 1 b! a|b|qout~6_combout $end
$var wire 1 c! a|b|qout~4_combout $end
$var wire 1 d! a|b|qout[7]~0_combout $end
$var wire 1 e! a|b|Equal0~0_combout $end
$var wire 1 f! a|b|qout[7]~3_combout $end
$var wire 1 g! a|b|qout~2_combout $end
$var wire 1 h! a|b|qout~1_combout $end
$var wire 1 i! a|b|cout~0_combout $end
$var wire 1 j! a|c|cout[0]~1_combout $end
$var wire 1 k! a|c|qout[4]~7_combout $end
$var wire 1 l! a|c|qout[0]~8_combout $end
$var wire 1 m! a|c|qout[2]~5_combout $end
$var wire 1 n! a|c|qout~6_combout $end
$var wire 1 o! a|c|qout~4_combout $end
$var wire 1 p! a|c|qout[7]~0_combout $end
$var wire 1 q! a|c|Equal0~0_combout $end
$var wire 1 r! a|c|qout[7]~3_combout $end
$var wire 1 s! a|c|qout~2_combout $end
$var wire 1 t! a|c|qout~1_combout $end
$var wire 1 u! a|c|cout~0_combout $end
$var wire 1 v! a|d|qout~5_combout $end
$var wire 1 w! a|d|qout[3]~6_combout $end
$var wire 1 x! a|d|qout~9_combout $end
$var wire 1 y! a|d|qout[6]~11_combout $end
$var wire 1 z! a|d|qout[6]~3_combout $end
$var wire 1 {! a|d|qout[7]~12_combout $end
$var wire 1 |! a|d|qout[7]~4_combout $end
$var wire 1 }! a|d|qout[5]~13_combout $end
$var wire 1 ~! a|d|qout[5]~2_combout $end
$var wire 1 !" a|d|qout[6]~0_combout $end
$var wire 1 "" a|d|qout~8_combout $end
$var wire 1 #" a|d|qout~7_combout $end
$var wire 1 $" a|d|qout[4]~10_combout $end
$var wire 1 %" a|d|qout[4]~1_combout $end
$var wire 1 &" e|Mux3~0_combout $end
$var wire 1 '" e|decodeout[1]~0_combout $end
$var wire 1 (" e|Decoder0~0_combout $end
$var wire 1 )" e|Mux2~0_combout $end
$var wire 1 *" e|WideOr0~0_combout $end
$var wire 1 +" e|Mux1~0_combout $end
$var wire 1 ," e|Mux0~0_combout $end
$var wire 1 -" f|Mux3~0_combout $end
$var wire 1 ." f|decodeout[1]~0_combout $end
$var wire 1 /" f|Decoder0~0_combout $end
$var wire 1 0" f|Mux2~0_combout $end
$var wire 1 1" f|WideOr0~0_combout $end
$var wire 1 2" f|Mux1~0_combout $end
$var wire 1 3" f|Mux0~0_combout $end
$var wire 1 4" g|Mux3~0_combout $end
$var wire 1 5" g|decodeout[1]~0_combout $end
$var wire 1 6" g|Decoder0~0_combout $end
$var wire 1 7" g|Mux2~0_combout $end
$var wire 1 8" g|WideOr0~0_combout $end
$var wire 1 9" g|Mux1~0_combout $end
$var wire 1 :" g|Mux0~0_combout $end
$var wire 1 ;" h|Mux3~0_combout $end
$var wire 1 <" h|decodeout[1]~0_combout $end
$var wire 1 =" h|Decoder0~0_combout $end
$var wire 1 >" h|Mux2~0_combout $end
$var wire 1 ?" h|WideOr0~0_combout $end
$var wire 1 @" h|Mux1~0_combout $end
$var wire 1 A" h|Mux0~0_combout $end
$var wire 1 B" i|Mux3~0_combout $end
$var wire 1 C" i|decodeout[1]~0_combout $end
$var wire 1 D" i|Decoder0~0_combout $end
$var wire 1 E" i|Mux2~0_combout $end
$var wire 1 F" i|WideOr0~0_combout $end
$var wire 1 G" i|Mux1~0_combout $end
$var wire 1 H" i|Mux0~0_combout $end
$var wire 1 I" j|Mux3~0_combout $end
$var wire 1 J" j|decodeout[1]~0_combout $end
$var wire 1 K" j|Decoder0~0_combout $end
$var wire 1 L" j|Mux2~0_combout $end
$var wire 1 M" j|WideOr0~0_combout $end
$var wire 1 N" j|Mux1~0_combout $end
$var wire 1 O" j|Mux0~0_combout $end
$var wire 1 P" a|d|qout [7] $end
$var wire 1 Q" a|d|qout [6] $end
$var wire 1 R" a|d|qout [5] $end
$var wire 1 S" a|d|qout [4] $end
$var wire 1 T" a|d|qout [3] $end
$var wire 1 U" a|d|qout [2] $end
$var wire 1 V" a|d|qout [1] $end
$var wire 1 W" a|d|qout [0] $end
$var wire 1 X" a|a|cnt1 [25] $end
$var wire 1 Y" a|a|cnt1 [24] $end
$var wire 1 Z" a|a|cnt1 [23] $end
$var wire 1 [" a|a|cnt1 [22] $end
$var wire 1 \" a|a|cnt1 [21] $end
$var wire 1 ]" a|a|cnt1 [20] $end
$var wire 1 ^" a|a|cnt1 [19] $end
$var wire 1 _" a|a|cnt1 [18] $end
$var wire 1 `" a|a|cnt1 [17] $end
$var wire 1 a" a|a|cnt1 [16] $end
$var wire 1 b" a|a|cnt1 [15] $end
$var wire 1 c" a|a|cnt1 [14] $end
$var wire 1 d" a|a|cnt1 [13] $end
$var wire 1 e" a|a|cnt1 [12] $end
$var wire 1 f" a|a|cnt1 [11] $end
$var wire 1 g" a|a|cnt1 [10] $end
$var wire 1 h" a|a|cnt1 [9] $end
$var wire 1 i" a|a|cnt1 [8] $end
$var wire 1 j" a|a|cnt1 [7] $end
$var wire 1 k" a|a|cnt1 [6] $end
$var wire 1 l" a|a|cnt1 [5] $end
$var wire 1 m" a|a|cnt1 [4] $end
$var wire 1 n" a|a|cnt1 [3] $end
$var wire 1 o" a|a|cnt1 [2] $end
$var wire 1 p" a|a|cnt1 [1] $end
$var wire 1 q" a|a|cnt1 [0] $end
$var wire 1 r" a|b|qout [7] $end
$var wire 1 s" a|b|qout [6] $end
$var wire 1 t" a|b|qout [5] $end
$var wire 1 u" a|b|qout [4] $end
$var wire 1 v" a|b|qout [3] $end
$var wire 1 w" a|b|qout [2] $end
$var wire 1 x" a|b|qout [1] $end
$var wire 1 y" a|b|qout [0] $end
$var wire 1 z" a|b|cout [1] $end
$var wire 1 {" a|b|cout [0] $end
$var wire 1 |" a|c|qout [7] $end
$var wire 1 }" a|c|qout [6] $end
$var wire 1 ~" a|c|qout [5] $end
$var wire 1 !# a|c|qout [4] $end
$var wire 1 "# a|c|qout [3] $end
$var wire 1 ## a|c|qout [2] $end
$var wire 1 $# a|c|qout [1] $end
$var wire 1 %# a|c|qout [0] $end
$var wire 1 &# a|c|cout [1] $end
$var wire 1 '# a|c|cout [0] $end
$upscope $end
$upscope $end
$enddefinitions $end
#0
$dumpvars
1!
0"
1#
0*
0)
0(
0'
0&
0%
1$
01
00
0/
0.
0-
0,
1+
08
07
06
05
04
03
12
0?
0>
0=
0<
0;
0:
19
0F
0E
0D
0C
0B
0A
1@
0M
0L
0K
0J
0I
0H
1G
xN
0O
1P
xQ
1R
1S
1T
0U
0V
0W
0X
0Y
0Z
1[
0\
0]
0^
0_
0`
0a
1b
0c
0d
0e
0f
0g
0h
1i
0j
0k
0l
0m
0n
0o
1p
0q
0r
0s
0t
0u
0v
1w
0x
0y
0z
0{
0|
0}
1~
0!!
1"!
1#!
0$!
0%!
0&!
0'!
0(!
0)!
0*!
0+!
0,!
0-!
0.!
0/!
00!
01!
02!
03!
04!
05!
06!
07!
08!
09!
0:!
0;!
0<!
0=!
0>!
0?!
1@!
1A!
0B!
0C!
0D!
0E!
0F!
0G!
0H!
0I!
0J!
0K!
0L!
0M!
1N!
0O!
0P!
0Q!
0R!
0S!
0T!
0U!
0V!
1W!
0X!
0Y!
0Z!
0[!
0\!
0]!
1^!
1_!
1`!
0a!
0b!
0c!
0d!
0e!
0f!
0g!
0h!
0i!
0j!
1k!
1l!
0m!
0n!
0o!
0p!
0q!
0r!
0s!
0t!
0u!
1v!
0w!
0x!
0y!
0z!
0{!
0|!
0}!
0~!
0!"
0""
0#"
0$"
0%"
0&"
0'"
0("
0)"
0*"
0+"
0,"
0-"
0."
0/"
00"
01"
02"
03"
04"
05"
06"
07"
08"
09"
0:"
0;"
0<"
0="
0>"
0?"
0@"
0A"
0B"
0C"
0D"
0E"
0F"
0G"
0H"
0I"
0J"
0K"
0L"
0M"
0N"
0O"
0W"
0V"
0U"
0T"
0S"
0R"
0Q"
0P"
0q"
0p"
0o"
0n"
0m"
0l"
0k"
0j"
0i"
0h"
0g"
0f"
0e"
0d"
0c"
0b"
0a"
0`"
0_"
0^"
0]"
0\"
0["
0Z"
0Y"
0X"
0y"
0x"
0w"
0v"
0u"
0t"
0s"
0r"
0{"
zz"
0%#
0$#
0##
0"#
0!#
0~"
0}"
0|"
0'#
z&#
$end
#10000
1"
1!!
0N
1q"
1Y!
0"!
1Z!
#20000
0"
0!!
1N
#30000
1"
1!!
0N
1p"
0q"
1$!
0Z!
1[!
0Y!
1"!
1%!
0$!
1Z!
1X!
1\!
0%!
#40000
0"
0!!
1N
#50000
1"
1!!
0N
1]!
0p"
0\!
0Z!
0[!
0X!
1\!
#60000
0"
0!!
1N
#70000
1"
1!!
0N
1q"
1Y!
0"!
1Z!
#80000
0"
0!!
1N
#90000
1"
1!!
0N
1p"
0q"
1$!
0Z!
1[!
0Y!
1"!
1%!
0$!
1Z!
1X!
0\!
0%!
#100000
0"
0!!
1N
#110000
1"
1!!
0N
0]!
0p"
1\!
0Z!
0[!
0X!
0\!
#120000
0"
0!!
1N
#130000
1"
1!!
0N
1q"
1Y!
0"!
1Z!
#140000
0"
0!!
1N
#150000
1"
1!!
0N
1p"
0q"
1$!
0Z!
1[!
0Y!
1"!
1%!
0$!
1Z!
1X!
1\!
0%!
#160000
0"
0!!
1N
#170000
1"
1!!
0N
1]!
0p"
0\!
0Z!
0[!
0X!
1\!
#180000
0"
0!!
1N
#190000
1"
1!!
0N
1q"
1Y!
0"!
1Z!
#200000
0"
0!!
1N
#210000
1"
1!!
0N
1p"
0q"
1$!
0Z!
1[!
0Y!
1"!
1%!
0$!
1Z!
1X!
0\!
0%!
#220000
0"
0!!
1N
#230000
1"
1!!
0N
0]!
0p"
1\!
0Z!
0[!
0X!
0\!
#240000
0"
0!!
1N
#250000
1"
1!!
0N
1q"
1Y!
0"!
1Z!
#260000
0"
0!!
1N
#270000
1"
1!!
0N
1p"
0q"
1$!
0Z!
1[!
0Y!
1"!
1%!
0$!
1Z!
1X!
1\!
0%!
#280000
0"
0!!
1N
#290000
1"
1!!
0N
1]!
0p"
0\!
0Z!
0[!
0X!
1\!
#300000
0"
0!!
1N
#310000
1"
1!!
0N
1q"
1Y!
0"!
1Z!
#320000
0"
0!!
1N
#330000
1"
1!!
0N
1p"
0q"
1$!
0Z!
1[!
0Y!
1"!
1%!
0$!
1Z!
1X!
0\!
0%!
#340000
0"
0!!
1N
#350000
1"
1!!
0N
0]!
0p"
1\!
0Z!
0[!
0X!
0\!
#360000
0"
0!!
1N
#370000
1"
1!!
0N
1q"
1Y!
0"!
1Z!
#380000
0"
0!!
1N
#390000
1"
1!!
0N
1p"
0q"
1$!
0Z!
1[!
0Y!
1"!
1%!
0$!
1Z!
1X!
1\!
0%!
#400000
0"
0!!
1N
#410000
1"
1!!
0N
1]!
0p"
0\!
0Z!
0[!
0X!
1\!
#420000
0"
0!!
1N
#430000
1"
1!!
0N
1q"
1Y!
0"!
1Z!
#440000
0"
0!!
1N
#450000
1"
1!!
0N
1p"
0q"
1$!
0Z!
1[!
0Y!
1"!
1%!
0$!
1Z!
1X!
0\!
0%!
#460000
0"
0!!
1N
#470000
1"
1!!
0N
0]!
0p"
1\!
0Z!
0[!
0X!
0\!
#480000
0"
0!!
1N
#490000
1"
1!!
0N
1q"
1Y!
0"!
1Z!
#500000
0"
0!!
1N
#510000
1"
1!!
0N
1p"
0q"
1$!
0Z!
1[!
0Y!
1"!
1%!
0$!
1Z!
1X!
1\!
0%!
#520000
0"
0!!
1N
#530000
1"
1!!
0N
1]!
0p"
0\!
0Z!
0[!
0X!
1\!
#540000
0"
0!!
1N
#550000
1"
1!!
0N
1q"
1Y!
0"!
1Z!
#560000
0"
0!!
1N
#570000
1"
1!!
0N
1p"
0q"
1$!
0Z!
1[!
0Y!
1"!
1%!
0$!
1Z!
1X!
0\!
0%!
#580000
0"
0!!
1N
#590000
1"
1!!
0N
0]!
0p"
1\!
0Z!
0[!
0X!
0\!
#600000
0"
0!!
1N
#610000
1"
1!!
0N
1q"
1Y!
0"!
1Z!
#620000
0"
0!!
1N
#630000
1"
1!!
0N
1p"
0q"
1$!
0Z!
1[!
0Y!
1"!
1%!
0$!
1Z!
1X!
1\!
0%!
#640000
0!
0"
0`!
0!!
1N
1j!
1w!
#650000
1"
1!!
0N
1]!
0p"
0\!
0Z!
0[!
0X!
1\!
1y"
0_!
1c!
1I"
1L"
1M"
1N"
1x
1{
1|
1}
1M
1J
1I
1H
#660000
0"
0!!
1N
#670000
1"
1!!
0N
1q"
1Y!
0"!
1Z!
#680000
0"
0!!
1N
#690000
1"
1!!
0N
1p"
0q"
1$!
0Z!
1[!
0Y!
1"!
1%!
0$!
1Z!
1X!
0\!
0%!
#700000
0"
0!!
1N
#710000
1"
1!!
0N
0]!
0p"
1\!
0Z!
0[!
0X!
0\!
#720000
0"
0!!
1N
#730000
1"
1!!
0N
1q"
1Y!
0"!
1Z!
#740000
0"
0!!
1N
#750000
1"
1!!
0N
1p"
0q"
1$!
0Z!
1[!
0Y!
1"!
1%!
0$!
1Z!
1X!
1\!
0%!
#760000
0"
0!!
1N
#770000
1"
1!!
0N
1]!
0p"
0\!
0Z!
0[!
0X!
1\!
1x"
0y"
1O"
1_!
0I"
1K"
0L"
0M"
0~
0x
1z
0{
0|
0G
0M
1K
0J
0I
#780000
0"
0!!
1N
#790000
1"
1!!
0N
1q"
1Y!
0"!
1Z!
#800000
0"
0!!
1N
#810000
1"
1!!
0N
1p"
0q"
1$!
0Z!
1[!
0Y!
1"!
1%!
0$!
1Z!
1X!
0\!
0%!
#820000
0"
0!!
1N
#830000
1"
1!!
0N
0]!
0p"
1\!
0Z!
0[!
0X!
0\!
#840000
0"
0!!
1N
#850000
1"
1!!
0N
1q"
1Y!
0"!
1Z!
#860000
0"
0!!
1N
#870000
1"
1!!
0N
1p"
0q"
1$!
0Z!
1[!
0Y!
1"!
1%!
0$!
1Z!
1X!
1\!
0%!
#880000
0"
0!!
1N
#890000
1"
1!!
0N
1]!
0p"
0\!
0Z!
0[!
0X!
1\!
1y"
0_!
1a!
0c!
0K"
1M"
0z
1|
0K
1I
#900000
0"
0!!
1N
#910000
1"
1!!
0N
1q"
1Y!
0"!
1Z!
#920000
0"
0!!
1N
#930000
1"
1!!
0N
1p"
0q"
1$!
0Z!
1[!
0Y!
1"!
1%!
0$!
1Z!
1X!
0\!
0%!
#940000
0"
0!!
1N
#950000
1"
1!!
0N
0]!
0p"
1\!
0Z!
0[!
0X!
0\!
#960000
0"
0!!
1N
#970000
1"
1!!
0N
1q"
1Y!
0"!
1Z!
#980000
0"
0!!
1N
#990000
1"
1!!
0N
1p"
0q"
1$!
0Z!
1[!
0Y!
1"!
1%!
0$!
1Z!
1X!
1\!
0%!
#1000000
0"
0!!
1N
#1010000
1"
1!!
0N
1]!
0p"
0\!
0Z!
0[!
0X!
1\!
0x"
1w"
0y"
1_!
1I"
1L"
0N"
1x
1{
0}
1M
1J
0H
#1020000
0"
0!!
1N
#1030000
1"
1!!
0N
1q"
1Y!
0"!
1Z!
#1040000
0"
0!!
1N
#1050000
1"
1!!
0N
1p"
0q"
1$!
0Z!
1[!
0Y!
1"!
1%!
0$!
1Z!
1X!
0\!
0%!
#1060000
0"
0!!
1N
#1070000
1"
1!!
0N
0]!
0p"
1\!
0Z!
0[!
0X!
0\!
#1080000
0"
0!!
1N
#1090000
1"
1!!
0N
1q"
1Y!
0"!
1Z!
#1100000
0"
0!!
1N
#1110000
1"
1!!
0N
1p"
0q"
1$!
0Z!
1[!
0Y!
1"!
1%!
0$!
1Z!
1X!
1\!
0%!
#1120000
0"
0!!
1N
#1130000
1"
1!!
0N
1]!
0p"
0\!
0Z!
0[!
0X!
1\!
1y"
0_!
1c!
0I"
1J"
0L"
0x
1y
0{
0M
1L
0J
#1140000
0"
0!!
1N
#1150000
1"
1!!
0N
1q"
1Y!
0"!
1Z!
#1160000
0"
0!!
1N
#1170000
1"
1!!
0N
1p"
0q"
1$!
0Z!
1[!
0Y!
1"!
1%!
0$!
1Z!
1X!
0\!
0%!
#1180000
0"
0!!
1N
#1190000
1"
1!!
0N
0]!
0p"
1\!
0Z!
0[!
0X!
0\!
#1200000
0"
0!!
1N
#1210000
1"
1!!
0N
1q"
1Y!
0"!
1Z!
#1220000
0"
0!!
1N
#1230000
1"
1!!
0N
1p"
0q"
1$!
0Z!
1[!
0Y!
1"!
1%!
0$!
1Z!
1X!
1\!
0%!
#1240000
0"
0!!
1N
#1250000
1"
1!!
0N
1]!
0p"
0\!
0Z!
0[!
0X!
1\!
1x"
0y"
1_!
0M"
0|
0I
#1260000
0"
0!!
1N
#1270000
1"
1!!
0N
1q"
1Y!
0"!
1Z!
#1280000
0"
0!!
1N
#1290000
1"
1!!
0N
1p"
0q"
1$!
0Z!
1[!
0Y!
1"!
1%!
0$!
1Z!
1X!
0\!
0%!
#1300000
0"
0!!
1N
#1310000
1"
1!!
0N
0]!
0p"
1\!
0Z!
0[!
0X!
0\!
#1320000
0"
0!!
1N
#1330000
1"
1!!
0N
1q"
1Y!
0"!
1Z!
#1340000
0"
0!!
1N
#1350000
1"
1!!
0N
1p"
0q"
1$!
0Z!
1[!
0Y!
1"!
1%!
0$!
1Z!
1X!
1\!
0%!
#1360000
0"
0!!
1N
#1370000
1"
1!!
0N
1]!
0p"
0\!
0Z!
0[!
0X!
1\!
1y"
0_!
0a!
1b!
0c!
0O"
0J"
1L"
1M"
1N"
1~
0y
1{
1|
1}
1G
0L
1J
1I
1H
#1380000
0"
0!!
1N
#1390000
1"
1!!
0N
1q"
1Y!
0"!
1Z!
#1400000
0"
0!!
1N
#1410000
1"
1!!
0N
1p"
0q"
1$!
0Z!
1[!
0Y!
1"!
1%!
0$!
1Z!
1X!
0\!
0%!
#1420000
0"
0!!
1N
#1430000
1"
1!!
0N
0]!
0p"
1\!
0Z!
0[!
0X!
0\!
#1440000
0"
0!!
1N
#1450000
1"
1!!
0N
1q"
1Y!
0"!
1Z!
#1460000
0"
0!!
1N
#1470000
1"
1!!
0N
1p"
0q"
1$!
0Z!
1[!
0Y!
1"!
1%!
0$!
1Z!
1X!
1\!
0%!
#1480000
0"
0!!
1N
#1490000
1"
1!!
0N
1]!
0p"
0\!
0Z!
0[!
0X!
1\!
0x"
1v"
0w"
0y"
1O"
1_!
0L"
0M"
0N"
0~
0{
0|
0}
0G
0J
0I
0H
#1500000
0"
0!!
1N
#1510000
1"
1!!
0N
1q"
1Y!
0"!
1Z!
#1520000
0"
0!!
1N
#1530000
1"
1!!
0N
1p"
0q"
1$!
0Z!
1[!
0Y!
1"!
1%!
0$!
1Z!
1X!
0\!
0%!
#1540000
0"
0!!
1N
#1550000
1"
1!!
0N
0]!
0p"
1\!
0Z!
0[!
0X!
0\!
#1560000
0"
0!!
1N
#1570000
1"
1!!
0N
1q"
1Y!
0"!
1Z!
#1580000
0"
0!!
1N
#1590000
1"
1!!
0N
1p"
0q"
1$!
0Z!
1[!
0Y!
1"!
1%!
0$!
1Z!
1X!
1\!
0%!
#1600000
1!
0"
1`!
0!!
1N
0j!
0w!
#1610000
1"
1!!
0N
1]!
0p"
0\!
0Z!
0[!
0X!
1\!
#1620000
0"
0!!
1N
#1630000
1"
1!!
0N
1q"
1Y!
0"!
1Z!
#1640000
0"
0!!
1N
#1650000
1"
1!!
0N
1p"
0q"
1$!
0Z!
1[!
0Y!
1"!
1%!
0$!
1Z!
1X!
0\!
0%!
#1660000
0"
0!!
1N
#1670000
1"
1!!
0N
0]!
0p"
1\!
0Z!
0[!
0X!
0\!
#1680000
0"
0!!
1N
#1690000
1"
1!!
0N
1q"
1Y!
0"!
1Z!
#1700000
0"
0!!
1N
#1710000
1"
1!!
0N
1p"
0q"
1$!
0Z!
1[!
0Y!
1"!
1%!
0$!
1Z!
1X!
1\!
0%!
#1720000
0"
0!!
1N
#1730000
1"
1!!
0N
1]!
0p"
0\!
0Z!
0[!
0X!
1\!
#1740000
0"
0!!
1N
#1750000
1"
1!!
0N
1q"
1Y!
0"!
1Z!
#1760000
0"
0!!
1N
#1770000
1"
1!!
0N
1p"
0q"
1$!
0Z!
1[!
0Y!
1"!
1%!
0$!
1Z!
1X!
0\!
0%!
#1780000
0"
0!!
1N
#1790000
1"
1!!
0N
0]!
0p"
1\!
0Z!
0[!
0X!
0\!
#1800000
0"
0!!
1N
#1810000
1"
1!!
0N
1q"
1Y!
0"!
1Z!
#1820000
0"
0!!
1N
#1830000
1"
1!!
0N
1p"
0q"
1$!
0Z!
1[!
0Y!
1"!
1%!
0$!
1Z!
1X!
1\!
0%!
#1840000
0"
0!!
1N
#1850000
1"
1!!
0N
1]!
0p"
0\!
0Z!
0[!
0X!
1\!
#1860000
0"
0!!
1N
#1870000
1"
1!!
0N
1q"
1Y!
0"!
1Z!
#1880000
0"
0!!
1N
#1890000
1"
1!!
0N
1p"
0q"
1$!
0Z!
1[!
0Y!
1"!
1%!
0$!
1Z!
1X!
0\!
0%!
#1900000
0"
0!!
1N
#1910000
1"
1!!
0N
0]!
0p"
1\!
0Z!
0[!
0X!
0\!
#1920000
0"
0!!
1N
#1930000
1"
1!!
0N
1q"
1Y!
0"!
1Z!
#1940000
0"
0!!
1N
#1950000
1"
1!!
0N
1p"
0q"
1$!
0Z!
1[!
0Y!
1"!
1%!
0$!
1Z!
1X!
1\!
0%!
#1960000
0"
0!!
1N
#1970000
1"
1!!
0N
1]!
0p"
0\!
0Z!
0[!
0X!
1\!
#1980000
0"
0!!
1N
#1990000
1"
1!!
0N
1q"
1Y!
0"!
1Z!
#2000000
0"
0!!
1N
#2010000
1"
1!!
0N
1p"
0q"
1$!
0Z!
1[!
0Y!
1"!
1%!
0$!
1Z!
1X!
0\!
0%!
#2020000
0"
0!!
1N
#2030000
1"
1!!
0N
0]!
0p"
1\!
0Z!
0[!
0X!
0\!
#2040000
0"
0!!
1N
#2050000
1"
1!!
0N
1q"
1Y!
0"!
1Z!
#2060000
0"
0!!
1N
#2070000
1"
1!!
0N
1p"
0q"
1$!
0Z!
1[!
0Y!
1"!
1%!
0$!
1Z!
1X!
1\!
0%!
#2080000
0"
0!!
1N
#2090000
1"
1!!
0N
1]!
0p"
0\!
0Z!
0[!
0X!
1\!
#2100000
0"
0!!
1N
#2110000
1"
1!!
0N
1q"
1Y!
0"!
1Z!
#2120000
0"
0!!
1N
#2130000
1"
1!!
0N
1p"
0q"
1$!
0Z!
1[!
0Y!
1"!
1%!
0$!
1Z!
1X!
0\!
0%!
#2140000
0"
0!!
1N
#2150000
1"
1!!
0N
0]!
0p"
1\!
0Z!
0[!
0X!
0\!
